{
  "localizedText": {
    "Page_title_Resume": "My CV",
    "Page_title_Cover_Letter": "My Cover Letter",
    "Create_New_Resume": "Create New CV",
    "Create_New_Cover_Letter": "Create New Cover Letter",
    "label_Resume": "CV",
    "label_cover_letter": "Cover Letter",
    "label_view": "View",
    "label_Choose_Format": "Choose Format",
    "Choose_Format_H5_Text": "Which format do you want to use?",
    "Choose_Format_Text": "Which file format would you like to receive?",
    "label_Adobe_PDF": "Adobe PDF (.pdf)",
    "label_Plain_Text": "Plain text (.txt)",
    "label_Ms_Word_Document": "MS word document (.docx)",
    "label_Svg_Document": "SVG document (.svg)",
    "label_New": "New",    
    "Dont_Save_Time": "I don't want to save time",
    "Resume_Check_Modal_Title": "We want to help you make a great impression",
    "Resume_Check_Modal_Sub_Title": "Review our suggestions to see what you can fix.",
    "Download_With_Error": "Download With Errors",
    "label_Fix_Resume": "Fix CV",
    "label_Duplicate": "Duplicate",
    "Cancel": "Cancel",
    "save": "Save",
    "label_to": "To",
    "label_from": "From",
    "label_From_Name": "From (Name)",
    "label_subject": "Subject",
    "Email": "Email",
    "label_Rename": "Rename",
    "Are_you_sure_you_want_to_delete_this": "Delete",
    "This_action_cannot_be_undone": "This action cannot be undone",
    "YES_DELETE": "YES, DELETE",
    "NO_DO_NOT_DELETE": "NO, DO NOT DELETE",
    "Create_a_New_Document": "Create a New Document",
    "Create_New": "Create New",
    "Get_Started": "Get Started",
    "label_Name": "Name",
    "label_Modified": "Modified",
    "label_Created": "Created",
    "label_Resume_Strength": "CV Strength",
    "label_Actions": "Actions",
    "label_Strength": "Strength",
    "label_check": "Check",
    "label_Edit": "Edit",
    "label_Print": "Print",
    "label_Download": "Download",
    "label_More": "More",
    "label_Email": "Email",
    "label_Remove": "Remove",
    "label_Previous": "Previous",
    "label_Next": "Next",
    "Please_Enter_Valid_Email_Address": "Please enter a valid email address.",
    "Please_Enter_Your_Name": "Please enter your name",
    "Please_Enter_Email_Subject": "Please enter an email subject.",
    "Email_Sent_if_You_like_To_Send_It_Again": "Email sent! If you'd like to send it again,",
    "label_Here": "here",
    "label_Click": "Click",
    "label_Email_Resume": "Email CV",
    "You_already_have_a": "You already have a",
    "with_this_name": "with this name!",
    "Please_Enter_Name_For": "Please enter name for",
    "Please_Do_Not_Use_Special_Characters": "Please do not use special characters",
    "label_Close": "Okay",
    "label_Select": "Select",
    "Try_It_Now": "Try it now",
    "Add_Message": "Add Message",
    "label_Send": "Send",
    "Download_My": "Download My",
    "email_My": "email my",
    "label_Perfect": "Perfect",
    "label_Excellent": "Excellent",
    "label_Good": "Good",
    "label_Average": "Average",
    "label_Fair": "Fair",
    "label_Weak": "Weak",
    "label_Copy": "Copy of",
    "footer_disclaimer_text": "DISCLAIMER : The names and logos of the companies referred to above are all trademarks of their respective holders. Unless specifically stated otherwise, such references are not intended to imply any affiliation or association with LiveCareer.",    
    "lkl_components_modalLayout_label_New": "New",
    "lkl_components_modalLayout_Browser_Extention_Title_One": "Apply",
    "lkl_components_modalLayout_Browser_Extention_Title_Two": "faster",
    "lkl_components_modalLayout_Browser_Extention_Title_Three": "and",
    "lkl_components_modalLayout_Browser_Extention_Title_Four": "smarter",
    "lkl_components_modalLayout_Try_It_Now": "Try it now",
    "lkl_components_modalLayout_Dont_Save_Time": "I don't want to save time",
    "lkl_components_modalLayout_Email": "Email",
    "lkl_components_modalLayout_label_Download": "Download",
    "lkl_components_modalLayout_Choose_Format_H5_Text": "Which format do you want to use?",
    "lkl_components_modalLayout_label_Adobe_PDF": "Adobe PDF (.pdf)",
    "lkl_components_modalLayout_label_Plain_Text": "Plain text (.txt)",
    "lkl_components_modalLayout_label_Ms_Word_Document": "MS word document (.docx)",
    "lkl_components_modalLayout_label_Svg_Document": "SVG document (.svg)",
    "lkl_components_modalLayout_label_Select": "Select",
    "lkl_components_modalLayout_Cancel": "Cancel",
    "lkl_components_modalLayout_Email_Sent_Lbl": "Email Sent",
    "lkl_components_modalLayout_label_Close": "Okay",
    "lkl_components_modalLayout_Email_Sent_if_You_like_To_Send_It_Again": "Email sent! If you'd like to send it again,",
    "lkl_components_modalLayout_label_Click": "Click",
    "lkl_components_modalLayout_label_Here": "here",
    "lkl_components_modalLayout_Please_Enter_Valid_Email_Address": "Please enter a valid email address.",
    "lkl_components_modalLayout_Please_Enter_Email_Subject": "Please enter an email subject.",
    "lkl_components_modalLayout_label_Send": "Send",
    "lkl_components_modalLayout_PrintPreview_Main_Heading": "Print Preview",
    "lkl_components_modalLayout_PrintPreview_Tips_Heading": "Tips",
    "lkl_components_modalLayout_PrintPeview_Resume_Tips_Points_One": "Keep your CV to 1-2 pages, if possible.",
    "lkl_components_modalLayout_PrintPeview_Resume_Tips_Points_Two": "To adjust spacing, fonts and margins use the formatting tools on the Edit page.",
    "lkl_components_modalLayout_PrintPreview_CoverLetter_Point": "Refine the formatting of your letter using the format tab shown below",
    "lkl_components_modalLayout_Previewing_Page_Heading": "Previewing Page",
    "lkl_components_modalLayout_Previewing_Page_Heading_Of": "Of",
    "lkl_components_modalLayout_PrintPreview_Button_Text": "Print",
    "lkl_components_modalLayout_Email_Dropdown_Choose_Resume_Heading": "Choose a CV",
    "lkl_components_modalLayout_Email_Dropdown_Select_Resume_Option": "Select CV...",
    "lkl_components_modalLayout_Email_Dropdown_Selected_Resume_Label": "Selected CV",
    "lkl_components_modalLayout_Email_Dropdown_Choose_CoverLetter_Heading": "Choose a Letter",
    "lkl_components_modalLayout_Email_Dropdown_Select_CoverLetter_Option": "Select Letter...",
    "lkl_components_modalLayout_Email_Dropdown_Selected_CoverLetter_Label": "Selected Letter",
    "lkl_components_modalLayout_Email_Dropdown_Change_Option": "Change",
    "lkl_components_modalLayout_ppd_buttonok": "OK",
    "lkl_components_modalLayout_ppd_DownloadConfirmation": "Your {1} has been downloaded and saved in downloads folder. Please open the folder on your desktop to find the file. We have also sent you a copy to your email {0}",
    "lkl_components_modalLayout_ppd_EmailConfirmation": "We have sent your {1} to {0} You can send it to a different email id as well.",
    "lkl_components_modalLayout_ppd_PrintConfirmation": "We have sent your {1} to {0} for your reference. You can continue with your print as well.",
    "lkl_components_modalLayout_ppd_BoldTagStart": "<span class = \"name-email\">",
    "lkl_components_modalLayout_ppd_BoldTagEnd": "</span>",
    "lkl_components_modalLayout_ppd_MobileEmailConfirmation": "We sent your {1} to",
    "lkl_components_modalLayout_ppd_MobileDownloadConfirmation": "Your {1} has been downloaded and saved in downloads folder. We have also sent you a copy to your email.",
    "lkl_components_modalLayout_ppd_MobileDocumentFormatHeading": "Format:",
    "lkl_components_modalLayout_ppd_MobilePpdModalBtnText": "OK, I GOT IT",
    "lkl_components_modalLayout_ppd_MobileNotReceivedEmailMessage": "If you do not receive an email from us within a few minutes, please check your SPAM folder.",
    "lkl_components_modalLayout_label_Choose_Format": "Choose Format",
    "lkl_components_modalLayout_Choose_Format_Text": "Which file format would you like to receive?",
    "lkl_components_modalLayout_Download_My": "Download My",
    "lkl_components_modalLayout_email_My": "email my",
    "lkl_components_modalLayout_label_to": "To",
    "lkl_components_modalLayout_label_From_Name": "From (Name)",
    "lkl_components_modalLayout_label_subject": "Subject",
    "lkl_components_modalLayout_Add_Message": "Add Message",
    "lkl_components_modalLayout_Resume_Check_Modal_Title": "We want to help you make a great impression",
    "lkl_components_modalLayout_Resume_Check_Modal_Sub_Title": "Review our suggestions to see what you can fix.",
    "lkl_components_modalLayout_Download_With_Error": "Download With Errors",
    "lkl_components_modalLayout_label_Fix_Resume": "Fix CV",
    "lkl_components_modalLayout_label_Resume_Strength": "CV Strength",
    "lkl_components_modalLayout_label_More": "More",
    "lkl_components_modalLayout_label_Copy": "Copy of",
    "lkl_components_modalLayout_label_Resume": "CV",
    "lkl_components_modalLayout_label_cover_letter": "Cover Letter",
    "lkl_components_modalLayout_You_already_have_a": "You already have a",
    "lkl_components_modalLayout_with_this_name": "with this name!",
    "lkl_components_modalLayout_label_Rename": "Rename",
    "lkl_components_modalLayout_label_Duplicate": "Duplicate",
    "lkl_components_modalLayout_Please_Do_Not_Use_Special_Characters": "Please do not use special characters",
    "lkl_components_modalLayout_sure_delete": "Are you sure you want to delete",
    "lkl_components_modalLayout_label_rename": "Please enter a new name for",
    "lkl_components_modalLayout_label_delete_resume": "Delete CV",
    "lkl_components_modalLayout_label_delete_cover_letter": "Delete Cover Letter",
    "lkl_components_modalLayout_label_duplicate": "Please enter a name for the duplicate",
    "lkl_components_modalLayout_label_Delete": "Delete",
    "lkl_components_modalLayout_sent_resume": "sent you a CV",
    "lkl_components_modalLayout_sent_letter": "sent you a letter",
    "lkl_components_modalLayout_from_placeholder": "Sender's full name",
    "lkl_components_modalLayout_email_placeholder": "email address",
    "lkl_components_modalLayout_label_Jpeg_Document": "JPEG",
    "lkl_components_modalLayout_Please_Enter_Your_Name": "Please enter sender's full name.",
    "lkl_components_modalLayout_mobile_email_placeholder": "Enter your email address",
    "lkl_components_modalLayout_Please_Enter_Correct_Email_Address": "Please enter a correct email address.",
    "lkl_components_modalLayout_mobileResumeEmailConfirmation": "We sent your CV to",
    "lkl_components_modalLayout_mobileLetterEmailConfirmation": "We sent your letter to",
    "lkl_components_modalLayout_note": "Note:",
    "lkl_components_modalLayout_noteMobileResume": "We have sent a copy of your CV to your registered email id as well.",
    "lkl_components_modalLayout_noteMobileLetter": "We have sent a copy of the letter to your registered email id as well.",
    "lkl_components_modalLayout_where_send_resume": "Where would you like to send your CV?",
    "lkl_components_modalLayout_where_send_letter": "Where would you like to send your cover letter?",
    "lkl_components_modalLayout_format": "format",
    "lkl_components_modalLayout_tipMobileResume": "TIP: you can always come back to edit your CV in the dashboard.",
    "lkl_components_modalLayout_tipMobileLetter": "TIP: you can always come back to edit your cover letter in the dashboard",
    "lkl_components_modalLayout_renameResume": "Rename Your CV",
    "lkl_components_modalLayout_renameLetter": "Rename Your Cover Letter",
    "lkl_components_modalLayout_titleResume": "CV title",
    "lkl_components_modalLayout_titleLetter": "Cover Letter title",
    "Your_Documents": "Your Documents",
    "New_Resume": "New CV",
    "New_Cover_letter": "New Cover letter",
    "Need_help": "Need help with writing your CV or cover letter?",
    "Resume_Review": "CV Review",
    "Get_Expert_Advice": "Get expert advice on how you can make your CV shine.",
    "Find_Out_More": "FIND OUT MORE",
    "resume_Tune_Up": "CV Tune-Up",
    "Polish_Your_Resume": "Our team of professional writers will polish your CV and make it stand out to employers.",
    "Resume_CL_Writting": "CV and Cover Letter Writing",
    "Professionally_Written_Resume": "Let us write it for you! Make a strong first impression with a professionally-written CV and cover letter.",
    "Dont_Have_Resume": "It looks like you don't have a CV yet.",
    "Resume_Note": "A CV is a first step in any job search. The sooner you created one, the sooner you can start applying for the jobs you want.",
    "Last_Updated": "Last updated",
    "Duplicate": "Duplicate",
    "Delete": "Delete",
    "Rename": "Rename",
    "ResumeInReview": "CV In Review",
    "YEAR": "year",
    "YEARS": "years",
    "MONTH": "month",
    "MONTHS": "months",
    "WEEK": "week",
    "WEEKS": "weeks",
    "DAYS": "days",
    "TODAY": "today",
    "YESTERDAY": "yesterday",
    "AGO": "ago",
    "Rename_Placeholder": "Enter the new name here",
    "Renaming": "renaming the",
    "Exist_resume": "already exists. Please enter a different name.",
    "your_resume": "Your CV",
    "your_letter": "Your Cover Letter",
    "professionally_written": "Professionally Written"
  }
}